{
    "intents": [
        {
            "tag": "greeting",
            "patterns": [
                "Hi",
                "Hello",
                "Hey",
                "Howdy",
                "Is anyone there",
                "Are you there",
                "Can you help me",
                "Namaste",
                "Heya",
                "Yo!",
                "Can i talk",
                "Hola"
            ],
            "responses":[
                "Hello this is Virtusa agent, how can I help you?",
                "Hi this is Virtusa agent, how can I help you?",
                "Hi this is Virtusa agent, what can I do for you?"
            ]
        },
        {
            "tag": "payslip",
            "patterns": [
                "How can we know about payslip?",
                "Where do i know about my payslip?",
                "where is my payslip?",
                "what about my payslip?",
                "How to know about my payslip?"
            ],

            "responses" : [
                "You can view information about pay slip in AllSec portal"
            ]
        },
        {
            "tag": "training",
            "patterns": [
                "I cant access my velocity training portal",
                "I am not able to access a course in velocity portal",
                "I need to renew my enrollment for the training course in velocity portal"
            ],

            "responses" : [
                "We will be raising a tickect for that issue "
            ]
        } ,                                            
        {
            "tag": "bye",
            "patterns": [
                "Bye",
                "goodbye",
                "okay thats all i want",
                "thank you"
            ],

            "responses" : [
                "Bye! hope I was of help to you!"
            ]
        }
    ]
}